Research Toolkit - 3 Data Manipulation
…
We use == for comparisons.

You can chain multiple criteria. In the example below, we filter for Males with temperatures above 30 degrees Celsius and Females with temperatures below 30 degrees Celsius. We use & for “and” and | for “or”, and enclose the conditions in parentheses to avoid confusion.

data_raven %>%
  filter(
    (gender == "Male" & mean_temp_celsius > 30) | (gender == "Female" & mean_temp_celsius < 30)
  )

# A tibble: 61 × 7
   id    mean_temp_celsius gender pr_correct tr_correct ch_tournament ch_correct
   <chr>             <dbl> <chr>       <dbl>      <dbl>         <dbl>      <dbl>
 1 0010…              28.6 Female          7          3             1          9
 2 0010…              28.6 Female          2          7             0          5
 3 0010…              28.6 Female          6          6             0          7
 4 0010…              28.6 Female          7          7             0          6
 5 0010…              30.7 Male            6          7             1          4
 6 0010…              30.7 Male            5          6             1          6
 7 0010…              30.7 Male            2          6             1          5
 8 0010…              30.7 Male            6          8             0          8
 9 0010…              30.7 Male            7          7             1          7
10 0010…              30.7 Male            4          5             1          6
# ℹ 51 more rows
…
You can use mutate() to create new variables using existing ones. For instance, you can convert Celsius to Fahrenheit, calculate the improvement in tournament scores over piece-rate round scores, and check the deviation from the mean score in the piece-rate round:

data_raven %>% mutate(
  mean_temp_fahrenheit = (mean_temp_celsius * 9 / 5) + 32,
  impovement = tr_correct - pr_correct,
  pr_deviation = pr_correct - mean(pr_correct)
)

# A tibble: 114 × 10
   id    mean_temp_celsius gender pr_correct tr_correct ch_tournament ch_correct
   <chr>             <dbl> <chr>       <dbl>      <dbl>         <dbl>      <dbl>
 1 0010…              28.6 Female          7          3             1          9
 2 0010…              28.6 Male            5          6             0          4
 3 0010…              28.6 Male            6          7             0          7
 4 0010…              28.6 Male            1          5             1          7
 5 0010…              28.6 Male            7          9             1         10
 6 0010…              28.6 Female          2          7             0          5
 7 0010…              28.6 Female          6          6             0          7
 8 0010…              28.6 Female          7          7             0          6
 9 0010…              30.7 Female          5          4             0          4
10 0010…              30.7 Male            6          7             1          4
# ℹ 104 more rows
# ℹ 3 more variables: mean_temp_fahrenheit <dbl>, impovement <dbl>,
#   pr_deviation <dbl>
…
This time, we ungrouped the data before calculating the ratio, which gives us the correct result!

3.3.7.3 .by

Grouping is a commonly performed operation. Having to repeatedly group and ungroup for individual operations can lead to verbosity. To address this, dplyr introduced a convenient feature with version 1.0.0 — the .by argument within dplyr functions. This enhancement streamlines the process and reduces the need for excessive grouping and ungrouping.

# A tibble: 113 × 8
   id    mean_temp_celsius gender pr_correct tr_correct ch_tournament ch_correct
   <chr>             <dbl> <chr>       <dbl>      <dbl>         <dbl>      <dbl>
 1 0010…              28.6 F               7          3             1          9
 2 0010…              28.6 M               5          6             0          4
 3 0010…              28.6 M               6          7             0          7
 4 0010…              28.6 M               1          5             1          7
 5 0010…              28.6 M               7          9             1         10
 6 0010…              28.6 F               2          7             0          5
 7 0010…              28.6 F               6          6             0          7
 8 0010…              28.6 F               7          7             0          6
 9 0010…              30.7 F               5          4             0          4
10 0010…              30.7 M               6          7             1          4
# ℹ 103 more rows
# ℹ 1 more variable: n <int>
…
