Practical tools for modern research - 4 Tidy Data
…
In this format, data input is straightforward, and generating summary tables is as simple as creating a pivot table. A tidy data approach from the outset aids in creating robust tables and saves time during analysis.

4.2 pivot_longer()

A common problem arises in datasets where column names are not variable names, but values of a variable. This is the case for pr_correct, tr_correct, ch_correct, where the column names represent the game variable’s name. Meanwhile, the values in the columns represent the number of correct answers, and each row denotes two observations, not one.

(data_raven <- readr::read_csv("https://raw.githubusercontent.com/nikitoshina/ECON-623-Lab-2023/main/data/mexico_sample_data.csv?token=GHSAT0AAAAAAB5WTPULI26TZP545VNUFQE6Y6O4XVA") %>% select(id, mean_temp_celsius, gender, pr_correct, tr_correct, ch_tournament, ch_correct))

# A tibble: 114 × 7
   id    mean_temp_celsius gender pr_correct tr_correct ch_tournament ch_correct
   <chr>             <dbl> <chr>       <dbl>      <dbl>         <dbl>      <dbl>
 1 0010…              28.6 Female          7          3             1          9
 2 0010…              28.6 Male            5          6             0          4
 3 0010…              28.6 Male            6          7             0          7
 4 0010…              28.6 Male            1          5             1          7
 5 0010…              28.6 Male            7          9             1         10
 6 0010…              28.6 Female          2          7             0          5
 7 0010…              28.6 Female          6          6             0          7
 8 0010…              28.6 Female          7          7             0          6
 9 0010…              30.7 Female          5          4             0          4
10 0010…              30.7 Male            6          7             1          4
# ℹ 104 more rows
…
