Research Toolkit - 11 Data Manipulation
…
We can chain multiple requirements. Here we will look at Males, temperature over 30 celsius or Females, temperature below 30. Notice that we use & as “and”, | as “or, and wrap the two conditions into”()” to avoid confusion. It could read it as mean_temp_celsius > 30 | gender == "Female".

data_raven %>% 
  filter( 
    (gender == "Male" & mean_temp_celsius > 30) | (gender == "Female" & mean_temp_celsius < 30)
        )

# A tibble: 61 × 7
   id        mean_temp_celsius gender pr_correct tr_correct ch_tournam…¹ ch_co…²
   <chr>                 <dbl> <chr>       <dbl>      <dbl>        <dbl>   <dbl>
 1 001018001              28.6 Female          7          3            1       9
 2 001018013              28.6 Female          2          7            0       5
 3 001018014              28.6 Female          6          6            0       7
 4 001018015              28.6 Female          7          7            0       6
 5 001019002              30.7 Male            6          7            1       4
 6 001019008              30.7 Male            5          6            1       6
 7 001019009              30.7 Male            2          6            1       5
 8 001019010              30.7 Male            6          8            0       8
 9 001019011              30.7 Male            7          7            1       7
10 001019012              30.7 Male            4          5            1       6
# … with 51 more rows, and abbreviated variable names ¹​ch_tournament,
#   ²​ch_correct
…
mutate() can use existing variables from the data set to create new ones! Lets convert Celsius to Fahrenheit, see how many point more people scored in tournament over piece-rate round, and check how far from the mean they scored in piece-rate round!

data_raven %>% mutate(mean_temp_fahrenheit = (mean_temp_celsius * 9/5) + 32,
                      impovement = tr_correct - pr_correct,
                      pr_deviation = pr_correct - mean(pr_correct))

# A tibble: 114 × 10
   id     mean_…¹ gender pr_co…² tr_co…³ ch_to…⁴ ch_co…⁵ mean_…⁶ impov…⁷ pr_de…⁸
   <chr>    <dbl> <chr>    <dbl>   <dbl>   <dbl>   <dbl>   <dbl>   <dbl>   <dbl>
 1 00101…    28.6 Female       7       3       1       9    83.5      -4   1.66 
 2 00101…    28.6 Male         5       6       0       4    83.5       1  -0.342
 3 00101…    28.6 Male         6       7       0       7    83.5       1   0.658
 4 00101…    28.6 Male         1       5       1       7    83.5       4  -4.34 
 5 00101…    28.6 Male         7       9       1      10    83.5       2   1.66 
 6 00101…    28.6 Female       2       7       0       5    83.5       5  -3.34 
 7 00101…    28.6 Female       6       6       0       7    83.5       0   0.658
 8 00101…    28.6 Female       7       7       0       6    83.5       0   1.66 
 9 00101…    30.7 Female       5       4       0       4    87.2      -1  -0.342
10 00101…    30.7 Male         6       7       1       4    87.2       1   0.658
# … with 104 more rows, and abbreviated variable names ¹​mean_temp_celsius,
#   ²​pr_correct, ³​tr_correct, ⁴​ch_tournament, ⁵​ch_correct,
#   ⁶​mean_temp_fahrenheit, ⁷​impovement, ⁸​pr_deviation
…
